Introduction to wikisourcer • wikisourcer
…
The digital library Wikisource, a sister projet of Wikipedia, hosts books in the public domain in almost all languages. More than 100’000 books are accessible in English, Spanish, French, German, Russian or Chinese.

The wikisourcer R package helps you download any book or page from Wikisource. The text is downloaded in a tidy data frame, so it can be analyzed within the tidyverse ecosystem.

Download books

To download Voltaire’s philosophical novel Candide, simply paste the url of the table of content into the wikisource_book function. Note that the book is already classified by chapter with the page variable.

library(wikisourcer)

wikisource_book("https://en.wikisource.org/wiki/Candide")

## # A tibble: 894 x 5
##    text                           page language url                  title
##    <chr>                         <int> <chr>    <chr>                <chr>
##  1 ""                                1 en       https://en.wikisour… Cand…
##  2 In the country of Westphalia…     1 en       https://en.wikisour… Cand…
##  3 "The Baron was one of the mo…     1 en       https://en.wikisour… Cand…
##  4 My Lady Baroness, who weighe…     1 en       https://en.wikisour… Cand…
##  5 Master Pangloss taught the m…     1 en       https://en.wikisour… Cand…
##  6 "\"It is demonstrable,\" sai…     1 en       https://en.wikisour… Cand…
##  7 Candide listened attentively…     1 en       https://en.wikisour… Cand…
##  8 One day when Miss Cunegund w…     1 en       https://en.wikisour… Cand…
##  9 On her way back she happened…     1 en       https://en.wikisour… Cand…
## 10 ""                                1 en       https://en.wikisour… Cand…
## # ... with 884 more rows
…
Download pages

The wikisource_book function sometimes doesn’t work. It happens when the main url path differs from the ones of the linked urls. This issue can easily be fixed using the wikisource_page function.

The wikisource_page function has two arguments, i.e. the Wikisource url and an optional title for the page. For example, we can download Sonnet 18 of William Shakespeare.

library(wikisourcer)

wikisource_page("https://en.wikisource.org/wiki/Sonnet_18_(Shakespeare)", "Sonnet 18")

## # A tibble: 26 x 4
##    text                       page    language url                        
##    <chr>                      <chr>   <chr>    <chr>                      
##  1 ""                         Sonnet… en       https://en.wikisource.org/…
##  2 ""                         Sonnet… en       https://en.wikisource.org/…
##  3 Shall I compare thee to a… Sonnet… en       https://en.wikisource.org/…
##  4 Thou art more lovely and … Sonnet… en       https://en.wikisource.org/…
##  5 Rough winds do shake the … Sonnet… en       https://en.wikisource.org/…
##  6 And summer's lease hath a… Sonnet… en       https://en.wikisource.org/…
##  7 Sometime too hot the eye … Sonnet… en       https://en.wikisource.org/…
##  8 And often is his gold com… Sonnet… en       https://en.wikisource.org/…
##  9 And every fair from fair … Sonnet… en       https://en.wikisource.org/…
## 10 By chance, or nature's ch… Sonnet… en       https://en.wikisource.org/…
## # ... with 16 more rows
…
## # A tibble: 0 x 1
## # ... with 1 variable: title <chr>

The download failed because the main wiki url wiki/The_Sonnets differs from the wiki path of the pages, i.e. wiki/Sonnet_.

We have to use the wikisource_page function to download the 154 Sonnets.

Note that the base R function paste0 is very useful to create a list of urls. We will also use paste0 to name the pages for the second argument of the wikisource_page function.

urls <- paste0("https://en.wikisource.org/wiki/Sonnet_", 1:154, "_(Shakespeare)") #154 urls

sonnets <- purrr::map2_df(urls, paste0("Sonnet ", 1:154), wikisource_page)
sonnets

## # A tibble: 3,275 x 4
##    text                        page    language url                       
##    <chr>                       <chr>   <chr>    <chr>                     
##  1 ""                          Sonnet… en       https://en.wikisource.org…
##  2 ""                          Sonnet… en       https://en.wikisource.org…
##  3 From fairest creatures we … Sonnet… en       https://en.wikisource.org…
##  4 That thereby beauty's rose… Sonnet… en       https://en.wikisource.org…
##  5 But as the riper should by… Sonnet… en       https://en.wikisource.org…
##  6 His tender heir might bear… Sonnet… en       https://en.wikisource.org…
##  7 But thou, contracted to th… Sonnet… en       https://en.wikisource.org…
##  8 Feed'st thy light's flame … Sonnet… en       https://en.wikisource.org…
##  9 Making a famine where abun… Sonnet… en       https://en.wikisource.org…
## 10 Thyself thy foe, to thy sw… Sonnet… en       https://en.wikisource.org…
## # ... with 3,265 more rows
…
