: Do the Rich Countries Always Win?
…
hdi_tidy <- hdi %>%
  select(Country = 2, "1990", "2000", "2010", "2014", "2015") %>%
  na.omit() %>% # remove only subtitles of the Excel file
  gather("HDI_Year", "HDI", 2:6) %>%
  mutate(HDI = as.numeric(HDI), # ".." of rows converted as NA
         HDI_Year = as.numeric(HDI_Year),
         Country = recode(Country,
                          "Russian Federation" = "Russia",
                          "Korea (Republic of)" = "South Korea",
                          "United Kingdom" = "Great Britain"))

print(hdi_tidy)

## # A tibble: 1,050 x 3
##        Country HDI_Year      HDI
##          <chr>    <dbl>    <dbl>
##  1      Norway     1990 0.849169
##  2   Australia     1990 0.865822
##  3 Switzerland     1990 0.830665
##  4     Germany     1990 0.801083
##  5     Denmark     1990 0.798528
##  6   Singapore     1990 0.718370
##  7 Netherlands     1990 0.829777
##  8     Ireland     1990 0.762468
##  9     Iceland     1990 0.796504
## 10      Canada     1990 0.848961
## # ... with 1,040 more rows
…
  return(medals)
  }

wo_years <- c(1992, 1994, 1998, 2002, 2006, 2010, 2014, 2018)

medals <- map_dfr(wo_years, getMedals) %>%
  as_tibble() %>%
  mutate(Country = recode(Country,
                          "Olympic Athletes from Russia" = "Russia"))

print(medals)

## # A tibble: 198 x 7
##     Rank       Country  Gold Silver Bronze nMedals WO_Year
##    <chr>         <chr> <int>  <int>  <int>   <int>   <dbl>
##  1     1       Germany    10     10      6      26    1992
##  2     2  Unified Team     9      6      8      23    1992
##  3     3        Norway     9      6      5      20    1992
##  4     4       Austria     6      7      8      21    1992
##  5     5 United States     5      4      2      11    1992
##  6     6         Italy     4      6      4      14    1992
##  7     7        France     3      5      1       9    1992
##  8     8       Finland     3      1      3       7    1992
##  9     9        Canada     2      3      2       7    1992
## 10    10   South Korea     2      1      1       4    1992
## # ... with 188 more rows

Lastly, we will join our two datasets.

dataset <- medals %>% 
  full_join(hdi_tidy, by = "Country") %>%
  drop_na(nMedals) # remove country with no medals

print(dataset)

## # A tibble: 978 x 9
##     Rank      Country  Gold Silver Bronze nMedals WO_Year HDI_Year
##    <chr>        <chr> <int>  <int>  <int>   <int>   <dbl>    <dbl>
##  1     1      Germany    10     10      6      26    1992     1990
##  2     1      Germany    10     10      6      26    1992     2000
##  3     1      Germany    10     10      6      26    1992     2010
##  4     1      Germany    10     10      6      26    1992     2014
##  5     1      Germany    10     10      6      26    1992     2015
##  6     2 Unified Team     9      6      8      23    1992       NA
##  7     3       Norway     9      6      5      20    1992     1990
##  8     3       Norway     9      6      5      20    1992     2000
##  9     3       Norway     9      6      5      20    1992     2010
## 10     3       Norway     9      6      5      20    1992     2014
## # ... with 968 more rows, and 1 more variables: HDI <dbl>
…
row_az <- which(nchar(noc_all2$Country) == 1) # get alphabetical order row
noc_all2$Country[row_az] <- NA # make alphabetical order row NA
noc_all2 <- drop_na(noc_all2, Country) # remove alphabetical order row

# Additional cleaning
noc_all2$Country <- noc_all2$Country %>%
  gsub("\\[|\\^]|\\]", "", .) %>%
  stringr::str_trim()
noc_part <- noc_all2 %>% filter(Value == 1)

noc_part %>% filter(WO_Year == 18)

## # A tibble: 94 x 3
##       Country WO_Year Value
##         <chr>   <chr> <dbl>
##  1    Albania      18     1
##  2    Andorra      18     1
##  3  Argentina      18     1
##  4    Armenia      18     1
##  5  Australia      18     1
##  6    Austria      18     1
##  7 Azerbaijan      18     1
##  8    Belarus      18     1
##  9    Belgium      18     1
## 10    Bermuda      18     1
## # ... with 84 more rows
…
