: Reproducing The Economist Most Popular Map of 2017
…
In order to reproduce the map from Economist taken from their Christmas countdown, we will first download the Fragile States Index. The Fragile States Index from the Fund for Peace can be download freely here. Lets download their data for 2016.

Show code

library(tidyverse)
library(rvest)
library(readxl)

url_2016 <- "http://fundforpeace.org/fsi/wp-content/uploads/data/fsi-2016.xlsx"
download.file(url = url_2016, destfile = "index_2016.xlsx")
index_2016 <- read_excel(path = "index_2016.xlsx")

index_2016 %>% select(Country, Year, Rank, Total)

## # A tibble: 178 x 4
##    Country                   Year                Rank  Total
##    <chr>                     <dttm>              <chr> <dbl>
##  1 Somalia                   2016-01-01 00:00:00 1st    114.
##  2 South Sudan               2016-01-01 00:00:00 2nd    114.
##  3 Central African Republic  2016-01-01 00:00:00 3rd    112.
##  4 Sudan                     2016-01-01 00:00:00 4th    112.
##  5 Yemen                     2016-01-01 00:00:00 4th    112.
##  6 Syria                     2016-01-01 00:00:00 6th    111.
##  7 Chad                      2016-01-01 00:00:00 7th    110.
##  8 Congo Democratic Republic 2016-01-01 00:00:00 8th    110.
##  9 Afghanistan               2016-01-01 00:00:00 9th    108.
## 10 Haiti                     2016-01-01 00:00:00 10th   105.
## # ... with 168 more rows
…
