…
## The Data

We can find on Wikipedia a full [list of James Bond film locations](https://en.wikipedia.org/wiki/List_of_James_Bond_film_locations). I copied the list on LibreOffice Calc and made some quick cleaning. For reproductivity, the data can be downloaded on my [Github repository](https://github.com/lgnbhl/lgnbhl.github.io/blob/master/images/data_bond.csv).

``` r
library(tidyverse)

bond <- read_csv("https://raw.githubusercontent.com/lgnbhl/lgnbhl.github.io/master/images/data_bond.csv")

print(bond)
```

    ## # A tibble: 143 x 3
    ##                     Film                           Location         region
    ##                    <chr>                              <chr>          <chr>
    ##  1                Dr. No MI6 headquarters in central London        England
    ##  2                Dr. No                           Kingston        Jamaica
    ##  3                Dr. No                           Crab Key        Jamaica
    ##  4 From Russia with Love                      Unnamed river United Kingdom
    ##  5 From Russia with Love                             Zagreb        Croatia
    ##  6 From Russia with Love                           Belgrade         Serbia
    ##  7 From Russia with Love                           Istanbul         Turkey
    ##  8 From Russia with Love                             Venice          Italy
    ##  9            Goldfinger                         Stoke Park        England
    ## 10            Goldfinger                             Geneva    Switzerland
    ## # ... with 133 more rows
…
