…
df <- full_join(dc_comics, marvel) %>%
  mutate(Release = lubridate::mdy(Release)) %>%
  rename("Title" = "Title (click to view)",
         "AdjGross" = "Adjusted Gross",
         "UnadjGross" = "Unadjusted Gross") %>%
  mutate(AdjGross = str_remove_all(AdjGross, "[\\$|\\,]"), #enlever $ and ,
         UnadjGross = str_remove_all(UnadjGross, "[\\$|\\,]"),
         AdjGross = as.numeric(AdjGross)/1000000, # en millions de dollars
         UnadjGross = as.numeric(UnadjGross)/1000000) %>%
  select(-Rank)

print(df)
```

    ## # A tibble: 74 x 6
    ##    Title                   Studio AdjGross UnadjGross Release    Franchise
    ##    <chr>                   <chr>     <dbl>      <dbl> <date>     <chr>    
    ##  1 The Dark Knight         WB         657.       533. 2008-07-18 DC Comics
    ##  2 Batman                  WB         557.       251. 1989-06-23 DC Comics
    ##  3 The Dark Knight Rises   WB         509.       448. 2012-07-20 DC Comics
    ##  4 Superman                WB         507.       134. 1978-12-15 DC Comics
    ##  5 Batman Forever          WB         374.       184. 1995-06-16 DC Comics
    ##  6 Batman Returns          WB         347.       163. 1992-06-19 DC Comics
    ##  7 Superman II             WB         344.       108. 1981-06-19 DC Comics
    ##  8 Batman v Superman: Daw… WB         338.       330. 2016-03-25 DC Comics
    ##  9 Suicide Squad           WB         338.       325. 2016-08-05 DC Comics
    ## 10 Man of Steel            WB         307.       291. 2013-06-14 DC Comics
    ## # ... with 64 more rows
…
