…
train  <- fromJSON("input/train.json", flatten = TRUE) %>%
  mutate(cuisine = as.factor(cuisine)) %>%
  as_tibble()

test <- fromJSON("input/test.json", flatten = TRUE) %>%
  as_tibble()

test <- test %>%
  mutate(cuisine = "NA") %>% # Add cuisine variable into test
  mutate(cuisine = factor(cuisine, levels = c(levels(train$cuisine)))) #add levels

train %>% arrange(id)
```

    ## # A tibble: 39,774 x 3
    ##       id cuisine     ingredients
    ##    <int> <fct>       <list>     
    ##  1     0 spanish     <chr [11]> 
    ##  2     1 mexican     <chr [18]> 
    ##  3     2 french      <chr [18]> 
    ##  4     3 chinese     <chr [11]> 
    ##  5     4 italian     <chr [4]>  
    ##  6     6 chinese     <chr [4]>  
    ##  7     8 french      <chr [9]>  
    ##  8     9 southern_us <chr [11]> 
    ##  9    10 chinese     <chr [10]> 
    ## 10    14 italian     <chr [12]> 
    ## # ... with 39,764 more rows
…
test_unnested <- test %>%
  tidyr::unnest(ingredients) %>%
  mutate(ingredients = gsub("-","_", ingredients)) %>% # allow dash
  mutate(ingredients = gsub("[^A-Za-z0-9_ ]","", ingredients)) %>% #keep letters, spaces, dash
  mutate(type = "test")

dataset <- full_join(train_unnested, test_unnested) %>%
  as_tibble()

dataset %>% arrange(id)
```

    ## # A tibble: 535,670 x 4
    ##       id cuisine ingredients                        type 
    ##    <int> <fct>   <chr>                              <chr>
    ##  1     0 spanish mussels                            train
    ##  2     0 spanish ground black pepper                train
    ##  3     0 spanish garlic cloves                      train
    ##  4     0 spanish saffron threads                    train
    ##  5     0 spanish olive oil                          train
    ##  6     0 spanish stewed tomatoes                    train
    ##  7     0 spanish arborio rice                       train
    ##  8     0 spanish minced onion                       train
    ##  9     0 spanish medium shrimp                      train
    ## 10     0 spanish fat free less sodium chicken broth train
    ## # ... with 535,660 more rows
…
``` r
library(tidytext)
library(SnowballC)

dataset_tidy <- dataset %>%
  tidytext::unnest_tokens(word, ingredients, drop = FALSE) %>%
  anti_join(stop_words) %>%
  mutate(wordStem = SnowballC::wordStem(word)) #Stemming

dataset_tidy %>% arrange(id)
```

    ## # A tibble: 994,837 x 6
    ##       id cuisine ingredients         type  word    wordStem
    ##    <int> <fct>   <chr>               <chr> <chr>   <chr>   
    ##  1     0 spanish mussels             train mussels mussel  
    ##  2     0 spanish ground black pepper train ground  ground  
    ##  3     0 spanish ground black pepper train black   black   
    ##  4     0 spanish ground black pepper train pepper  pepper  
    ##  5     0 spanish garlic cloves       train garlic  garlic  
    ##  6     0 spanish garlic cloves       train cloves  clove   
    ##  7     0 spanish saffron threads     train saffron saffron 
    ##  8     0 spanish saffron threads     train threads thread  
    ##  9     0 spanish olive oil           train olive   oliv    
    ## 10     0 spanish olive oil           train oil     oil     
    ## # ... with 994,827 more rows
…
dataset_dtm %>% arrange(id)
```

    ## # A tibble: 49,718 x 803
    ##    cuisine        id type  ground pepper fresh  seed chicken   dri  sauc
    ##    <fct>       <dbl> <chr>  <dbl>  <dbl> <dbl> <dbl>   <dbl> <dbl> <dbl>
    ##  1 spanish        0. train     1.     1.    0.    0.      1.    0.    0.
    ##  2 mexican        1. train     3.     4.    1.    0.      0.    0.    0.
    ##  3 french         2. train     0.     1.    0.    0.      1.    0.    0.
    ##  4 chinese        3. train     0.     1.    1.    0.      0.    0.    1.
    ##  5 italian        4. train     0.     0.    0.    0.      0.    0.    0.
    ##  6 <NA>           5. test      1.     0.    0.    0.      0.    1.    1.
    ##  7 chinese        6. train     0.     0.    0.    0.      0.    0.    1.
    ##  8 <NA>           7. test      4.     1.    1.    0.      1.    0.    0.
    ##  9 french         8. train     0.     0.    0.    0.      0.    0.    0.
    ## 10 southern_us    9. train     0.     1.    0.    0.      0.    2.    0.
    ## # ... with 49,708 more rows, and 793 more variables
…
``` r
sumIng <- dataset_tidy %>%
  group_by(id) %>%
  count(id) %>%
  rename(nIng = n)

dataset_dtm <- dataset_dtm %>%
  full_join(sumIng, by = "id")

dataset_dtm %>%
  select(cuisine, id, nIng, type, everything()) %>%
  arrange(id)
```

    ## # A tibble: 49,718 x 804
    ##    cuisine    id  nIng type  ground pepper fresh  seed chicken   dri  sauc
    ##    <fct>   <dbl> <int> <chr>  <dbl>  <dbl> <dbl> <dbl>   <dbl> <dbl> <dbl>
    ##  1 spanish    0.    25 train     1.     1.    0.    0.      1.    0.    0.
    ##  2 mexican    1.    36 train     3.     4.    1.    0.      0.    0.    0.
    ##  3 french     2.    26 train     0.     1.    0.    0.      1.    0.    0.
    ##  4 chinese    3.    19 train     0.     1.    1.    0.      0.    0.    1.
    ##  5 italian    4.     8 train     0.     0.    0.    0.      0.    0.    0.
    ##  6 <NA>       5.    17 test      1.     0.    0.    0.      0.    1.    1.
    ##  7 chinese    6.     9 train     0.     0.    0.    0.      0.    0.    1.
    ##  8 <NA>       7.    31 test      4.     1.    1.    0.      1.    0.    0.
    ##  9 french     8.    16 train     0.     0.    0.    0.      0.    0.    0.
    ## 10 southe…    9.    19 train     0.     1.    0.    0.      0.    2.    0.
    ## # ... with 49,708 more rows, and 793 more variables
…
``` r
dataset_final <- dataset_dtm %>%
  full_join(nAsian_ingredients, by = "id") %>%
  full_join(nSouth_ingredients, by = "id") %>%
  full_join(nNorth_ingredients, by = "id") %>%
  # replace NA by 0 in the new variables
  mutate_at(vars(c(nAsian_ing, nNorth_ing, nSouth_ing)), funs(replace(., is.na(.), 0)))

dataset_final %>%
  select(cuisine, id, nIng, nAsian_ing, nNorth_ing, nSouth_ing, everything()) %>%
  arrange(id)
```

    ## # A tibble: 49,718 x 807
    ##    cuisine        id  nIng nAsian_ing nNorth_ing nSouth_ing type  ground
    ##    <fct>       <dbl> <int>      <dbl>      <dbl>      <dbl> <chr>  <dbl>
    ##  1 spanish        0.    25         0.         0.         0. train     1.
    ##  2 mexican        1.    36         0.         0.         0. train     3.
    ##  3 french         2.    26         0.         1.         0. train     0.
    ##  4 chinese        3.    19         0.         0.         0. train     0.
    ##  5 italian        4.     8         0.         0.         0. train     0.
    ##  6 <NA>           5.    17         0.         0.         0. test      1.
    ##  7 chinese        6.     9         0.         0.         0. train     0.
    ##  8 <NA>           7.    31         0.         0.         1. test      4.
    ##  9 french         8.    16         0.         0.         0. train     0.
    ## 10 southern_us    9.    19         0.         0.         0. train     0.
    ## # ... with 49,708 more rows, and 799 more variables
…
train_test_split <- dataset_final %>%
  filter(type == "train") %>%
  initial_split(prop = 0.8)

# Retrieve train and test sets
train_tbl <- training(train_test_split) %>% select(-type)
test_tbl  <- testing(train_test_split) %>% select(-type)

train_tbl %>% arrange(id)
```

    ## # A tibble: 31,820 x 806
    ##    cuisine        id ground pepper fresh  seed chicken   dri  sauc powder
    ##    <fct>       <dbl>  <dbl>  <dbl> <dbl> <dbl>   <dbl> <dbl> <dbl>  <dbl>
    ##  1 spanish        0.     1.     1.    0.    0.      1.    0.    0.     0.
    ##  2 italian        4.     0.     0.    0.    0.      0.    0.    0.     0.
    ##  3 chinese        6.     0.     0.    0.    0.      0.    0.    1.     0.
    ##  4 french         8.     0.     0.    0.    0.      0.    0.    0.     1.
    ##  5 southern_us    9.     0.     1.    0.    0.      0.    2.    0.     0.
    ##  6 chinese       10.     0.     3.    0.    0.      0.    0.    1.     0.
    ##  7 italian       14.     0.     1.    1.    0.      0.    0.    0.     0.
    ##  8 indian        16.     0.     0.    2.    0.      1.    0.    0.     1.
    ##  9 mexican       19.     2.     1.    0.    0.      0.    0.    0.     1.
    ## 10 italian       20.     0.     0.    1.    0.      0.    0.    0.     0.
    ## # ... with 31,810 more rows, and 796 more variables
…
