…
url1 <- "https://www.omniglot.com/language/phrases/japanese.php" 

japanese <- url1 %>%
  read_html() %>%
  html_table() %>%
  .[[1]] %>%
  write_csv(path = paste0("", system.file("extdata/", package =
  "polyglot"), "Japanese_54_Basic_Expressions.csv"))

as_tibble(japanese)
```

    ## # A tibble: 54 x 2
    ##                     English
    ##                       <chr>
    ##  1                  Welcome
    ##  2 Hello (General greeting)
    ##  3         Hello (on phone)
    ##  4             How are you?
    ##  5  Reply to 'How are you?'
    ##  6         Long time no see
    ##  7        What's your name?
    ##  8           My name is ...
    ##  9      Where are you from?
    ## 10             I'm from ...
    ## # ... with 44 more rows, and 1 more variables: `日本語 (Japanese)` <chr>
…
capitals <- url2 %>%
  read_html() %>%
  html_node(".wikitable") %>%
  html_table(fill = TRUE) %>%
  select(Country, City, Notes) %>%
  arrange(Country) %>%
  write_csv(path = paste0("", system.file("extdata/", package =
  "polyglot"), "List_Capital_Cities.csv"))

as_tibble(capitals)
```

    ## # A tibble: 243 x 3
    ##                  Country                City
    ##                    <chr>               <chr>
    ##  1              Abkhazia             Sukhumi
    ##  2           Afghanistan               Kabul
    ##  3 Akrotiri and Dhekelia Episkopi Cantonment
    ##  4               Albania              Tirana
    ##  5               Algeria             Algiers
    ##  6        American Samoa           Pago Pago
    ##  7               Andorra    Andorra la Vella
    ##  8                Angola              Luanda
    ##  9              Anguilla          The Valley
    ## 10   Antigua and Barbuda          St. John's
    ## # ... with 233 more rows, and 1 more variables: Notes <chr>
…
