…
swissData <- swiss_call %>%
  full_join(swiss_sms, by = c("Kanton", "Datum.und.Zeit")) %>%
  full_join(swiss_data, by = c("Kanton", "Datum.und.Zeit")) %>%
  select(canton = 1, date = 2, nCall = 3, nSMS = 4, nBytes = 5, nGB = 6) %>%
  mutate(date = as_datetime(date),
         nGB = as.numeric(nGB)) %>%
  filter(canton != "LI") %>% # remove Liechtenstein
  arrange(date) %>%
  as_tibble()

print(swissData)
```

    ## # A tibble: 19,370 x 6
    ##    canton date                nCall  nSMS        nBytes    nGB
    ##    <fct>  <dttm>              <int> <int>         <dbl>  <dbl>
    ##  1 AI     2017-06-30 22:00:00    71    19   6528531111. 15350.
    ##  2 SG     2017-06-30 22:00:00  1861  1462 290464073994.  9032.
    ##  3 GR     2017-06-30 22:00:00   863   574 140638082495.  3125.
    ##  4 SH     2017-06-30 22:00:00   147   666  41447348997. 11824.
    ##  5 SO     2017-06-30 22:00:00   736   504 209639609745.  6569.
    ##  6 GE     2017-06-30 22:00:00  3335  2219 359004229636. 10809.
    ##  7 NW     2017-06-30 22:00:00   231   125  24987344359.  7707.
    ##  8 LU     2017-06-30 22:00:00  1210   620 221333360558.  6921.
    ##  9 NE     2017-06-30 22:00:00  1817   665 119579881196.  1219.
    ## 10 JU     2017-06-30 22:00:00   380   362  44149994010. 12394.
    ## # ... with 19,360 more rows
…
Let’s begin by making a [nested data
frame](http://r4ds.had.co.nz/many-models.html#nested-data), so we can
build multiple models.

``` r
swissData_call_nested <- swissData %>%
  select(canton, date, nCall) %>%
  group_by(canton) %>%
  nest(.key = "data.tbl")

print(swissData_call_nested)
```

    ## # A tibble: 26 x 2
    ##    canton data.tbl          
    ##    <fct>  <list>            
    ##  1 AI     <tibble [745 x 2]>
    ##  2 SG     <tibble [745 x 2]>
    ##  3 GR     <tibble [745 x 2]>
    ##  4 SH     <tibble [745 x 2]>
    ##  5 SO     <tibble [745 x 2]>
    ##  6 GE     <tibble [745 x 2]>
    ##  7 NW     <tibble [745 x 2]>
    ##  8 LU     <tibble [745 x 2]>
    ##  9 NE     <tibble [745 x 2]>
    ## 10 JU     <tibble [745 x 2]>
    ## # ... with 16 more rows
…
swissData_call_nested <- swissData_call_nested %>%
  mutate(data.ts = map(data.tbl, timetk::tk_ts, frequency = 24,
                       start = as.Date("2017-07-01"), 
                       end = as.Date("2017-08-01"))) %>%
  mutate(data.msts = map(data.ts, msts, seasonal.periods = c(24, 24*7))) %>%
  mutate(data.tbats = map(data.msts, tbats)) %>% #take 10 minutes to run
  mutate(data.fcast = map(data.tbats, forecast, h = c(24*7))) %>%
  mutate(data.augm = map(data.tbats, sweep::sw_augment)) %>%
  mutate(data.tidy = map(data.fcast, sweep::sw_sweep))

print(swissData_call_nested)
```

    ## # A tibble: 26 x 8
    ##    canton data.tbl    data.ts  data.msts data.tbats data.fcast data.augm  
    ##    <fct>  <list>      <list>   <list>    <list>     <list>     <list>     
    ##  1 NW     <tibble [7~ <S3: ts> <S3: mst~ <S3: tbat~ <S3: fore~ <tibble [7~
    ##  2 AG     <tibble [7~ <S3: ts> <S3: mst~ <S3: tbat~ <S3: fore~ <tibble [7~
    ##  3 VD     <tibble [7~ <S3: ts> <S3: mst~ <S3: tbat~ <S3: fore~ <tibble [7~
    ##  4 ZH     <tibble [7~ <S3: ts> <S3: mst~ <S3: tbat~ <S3: fore~ <tibble [7~
    ##  5 SZ     <tibble [7~ <S3: ts> <S3: mst~ <S3: tbat~ <S3: fore~ <tibble [7~
    ##  6 OW     <tibble [7~ <S3: ts> <S3: mst~ <S3: tbat~ <S3: fore~ <tibble [7~
    ##  7 BS     <tibble [7~ <S3: ts> <S3: mst~ <S3: tbat~ <S3: fore~ <tibble [7~
    ##  8 AR     <tibble [7~ <S3: ts> <S3: mst~ <S3: tbat~ <S3: fore~ <tibble [7~
    ##  9 ZG     <tibble [7~ <S3: ts> <S3: mst~ <S3: tbat~ <S3: fore~ <tibble [7~
    ## 10 UR     <tibble [7~ <S3: ts> <S3: mst~ <S3: tbat~ <S3: fore~ <tibble [7~
    ## # ... with 16 more rows, and 1 more variable: data.tidy <list>
…
Our nine model residuals are quite regular, at the exception of three
hours on July the 24th. At what time of the day are these high
residuals?

``` r
swissData_call_nested %>%
  filter(canton %in% cantons_9) %>%
  unnest(data.augm) %>%
  mutate(date = rep(swissData_ts_index, times = 9)) %>% #add date index
  select(canton, date, .resid) %>%
  arrange(desc(.resid))
```

    ## # A tibble: 6,705 x 3
    ##    canton date                .resid
    ##    <fct>  <dttm>               <dbl>
    ##  1 ZH     2017-07-24 13:00:00 84253.
    ##  2 BE     2017-07-24 13:00:00 65969.
    ##  3 VD     2017-07-24 13:00:00 56212.
    ##  4 TI     2017-07-24 13:00:00 40955.
    ##  5 GE     2017-07-24 13:00:00 38284.
    ##  6 VS     2017-07-24 13:00:00 31739.
    ##  7 AG     2017-07-24 13:00:00 31550.
    ##  8 ZH     2017-07-07 08:00:00 30546.
    ##  9 SG     2017-07-24 13:00:00 25433.
    ## 10 VD     2017-07-17 06:00:00 23288.
    ## # ... with 6,695 more rows
…
