…
pokemon_gender
```

</details><br>

    ## # A tibble: 801 x 4
    ##    gender                           generation        name           n
    ##    <chr>                            <chr>             <chr>      <int>
    ##  1 Pokémon more likely to be FEMALE from Generation I Chansey        1
    ##  2 Pokémon more likely to be FEMALE from Generation I Clefable       1
    ##  3 Pokémon more likely to be FEMALE from Generation I Clefairy       1
    ##  4 Pokémon more likely to be FEMALE from Generation I Jigglypuff     1
    ##  5 Pokémon more likely to be FEMALE from Generation I Jynx           1
    ##  6 Pokémon more likely to be FEMALE from Generation I Kangaskhan     1
    ##  7 Pokémon more likely to be FEMALE from Generation I Nidoqueen      1
    ##  8 Pokémon more likely to be FEMALE from Generation I Nidoran♀       1
    ##  9 Pokémon more likely to be FEMALE from Generation I Nidorina       1
    ## 10 Pokémon more likely to be FEMALE from Generation I Ninetales      1
    ## # ... with 791 more rows
…
