…
table <- wikitable %>%
  html_table() %>%
  as_tibble() %>%
  mutate(
    wikilinks = wikilinks,
    page_name = str_remove(wikilinks, ".*/")
  ) %>%
  janitor::clean_names() %>%
  mutate_all(funs(str_remove_all(., "\\[note [0-9]+]|\\[[0-9]+]"))) %>%
  select(member_state = member_state_7_13_14, wikilinks, page_name)

table
```

    ## # A tibble: 193 x 3
    ##    member_state       wikilinks                                 page_name       
    ##    <chr>              <chr>                                     <chr>           
    ##  1 Afghanistan        https://en.wikipedia.org/wiki/Afghanistan Afghanistan     
    ##  2 Albania            https://en.wikipedia.org/wiki/Albania     Albania         
    ##  3 Algeria            https://en.wikipedia.org/wiki/Algeria     Algeria         
    ##  4 Andorra            https://en.wikipedia.org/wiki/Andorra     Andorra         
    ##  5 Angola             https://en.wikipedia.org/wiki/Angola      Angola          
    ##  6 Antigua and Barbu… https://en.wikipedia.org/wiki/Antigua_an… Antigua_and_Bar…
    ##  7 Argentina          https://en.wikipedia.org/wiki/Argentina   Argentina       
    ##  8 Armenia            https://en.wikipedia.org/wiki/Armenia     Armenia         
    ##  9 Australia          https://en.wikipedia.org/wiki/Australia   Australia       
    ## 10 Austria            https://en.wikipedia.org/wiki/Austria     Austria         
    ## # … with 183 more rows
…
table_demonyms <- table_demonyms %>%
  mutate(
    adjectivals = str_trim(adjectivals),
    demonyms = str_trim(demonyms),
    adjectivals_unnested = str_split(adjectivals, ", | or | "),
    demonyms_unnested = str_split(demonyms, ", | or |/| ")
  ) %>%
  unnest_longer(adjectivals_unnested) %>%
  unnest_longer(demonyms_unnested)

table_demonyms
```

    ## # A tibble: 726 x 5
    ##    country_entity_n… adjectivals   demonyms   adjectivals_unne… demonyms_unnest…
    ##    <chr>             <chr>         <chr>      <chr>             <chr>           
    ##  1 abkhazia          abkhaz, abkh… abkhazians abkhaz            abkhazians      
    ##  2 abkhazia          abkhaz, abkh… abkhazians abkhazian         abkhazians      
    ##  3 afghanistan       afghan        afghans    afghan            afghans         
    ##  4 åland islands     åland island  åland isl… åland             åland           
    ##  5 åland islands     åland island  åland isl… åland             islanders       
    ##  6 åland islands     åland island  åland isl… island            åland           
    ##  7 åland islands     åland island  åland isl… island            islanders       
    ##  8 albania           albanian      albanians  albanian          albanians       
    ##  9 algeria           algerian      algerians  algerian          algerians       
    ## 10 american samoa    american sam… american … american          american        
    ## # … with 716 more rows
…
table_tidy
```

    ## # A tibble: 2,326,428 x 4
    ##    member_state wikilinks                               page_name  word         
    ##    <chr>        <chr>                                   <chr>      <chr>        
    ##  1 Afghanistan  https://en.wikipedia.org/wiki/Afghanis… Afghanist… landlocked   
    ##  2 Afghanistan  https://en.wikipedia.org/wiki/Afghanis… Afghanist… asian        
    ##  3 Afghanistan  https://en.wikipedia.org/wiki/Afghanis… Afghanist… manga        
    ##  4 Afghanistan  https://en.wikipedia.org/wiki/Afghanis… Afghanist… see          
    ##  5 Afghanistan  https://en.wikipedia.org/wiki/Afghanis… Afghanist… afghanis     
    ##  6 Afghanistan  https://en.wikipedia.org/wiki/Afghanis… Afghanist… tan          
    ##  7 Afghanistan  https://en.wikipedia.org/wiki/Afghanis… Afghanist… afghanistan.…
    ##  8 Afghanistan  https://en.wikipedia.org/wiki/Afghanis… Afghanist… parser       
    ##  9 Afghanistan  https://en.wikipedia.org/wiki/Afghanis… Afghanist… output       
    ## 10 Afghanistan  https://en.wikipedia.org/wiki/Afghanis… Afghanist… nobold       
    ## # … with 2,326,418 more rows
…
Let’s have a look at our most recurring words.

``` r
top1words <- table_tidy2 %>%
  count(member_state, word, sort = TRUE) %>%
  group_by(member_state) %>%
  top_n(1) %>%
  distinct(member_state, .keep_all = TRUE) %>%
  arrange(desc(member_state, n))

top1words
```

    ## # A tibble: 193 x 3
    ## # Groups:   member_state [193]
    ##    member_state                                         word           n
    ##    <chr>                                                <chr>      <int>
    ##  1 Zimbabwe                                             news          67
    ##  2 Zambia                                               rhodesia      40
    ##  3 Yemen                                                sana'a        87
    ##  4 Viet Nam                                             journal       95
    ##  5 Vanuatu                                              pacific       30
    ##  6 Uzbekistan                                           soviet        47
    ##  7 Uruguay                                              montevideo    51
    ##  8 United States of America                             war          131
    ##  9 United Republic of Tanzania                          zanzibar      58
    ## 10 United Kingdom of Great Britain and Northern Ireland world        127
    ## # … with 183 more rows

Yes, the most recurring word of the United States of America’s Wikipedia
page is “war” indeed.

But to which extend the word “war” is more recurring than other words?

``` r
table_tidy2 %>%
  filter(member_state == "United States of America") %>%
  count(word, sort = TRUE)
```

    ## # A tibble: 6,883 x 2
    ##    word           n
    ##    <chr>      <int>
    ##  1 war          131
    ##  2 world        130
    ##  3 history      106
    ##  4 federal      102
    ##  5 population   100
    ##  6 press         97
    ##  7 york          77
    ##  8 national      76
    ##  9 university    75
    ## 10 first         63
    ## # … with 6,873 more rows
…
<iframe seamless src="/images/DT_top10_2.html" width="100%" height="600" frameborder="0"></iframe>

What are the most recurring words in all our tops?

``` r
table_tidy2 %>%
  count(member_state, word) %>%
  group_by(member_state) %>%
  top_n(10) %>%
  ungroup() %>%
  count(word, sort = TRUE)
```

    ## # A tibble: 645 x 2
    ##    word              n
    ##    <chr>         <int>
    ##  1 world           174
    ##  2 population      138
    ##  3 national        126
    ##  4 international    76
    ##  5 first            53
    ##  6 war              53
    ##  7 president        51
    ##  8 century          35
    ##  9 article          33
    ## 10 university       32
    ## # … with 635 more rows
…
``` r
top1words_new <- table_tidy2 %>%
  filter(!word %in% c("world", "world's", "population", "national")) %>%
  count(member_state, word, sort = TRUE) %>%
  group_by(member_state) %>%
  top_n(1) %>%
  ungroup() %>%
  distinct(member_state, .keep_all = TRUE) %>%
  arrange(desc(member_state))

top1words_new %>%
  count(word, sort = TRUE)
```

    ## # A tibble: 133 x 2
    ##    word          n
    ##    <chr>     <int>
    ##  1 caribbean     9
    ##  2 pacific       9
    ##  3 soviet        8
    ##  4 president     7
    ##  5 war           7
    ##  6 century       6
    ##  7 europe        4
    ##  8 federal       3
    ##  9 military      3
    ## 10 atoll         2
    ## # … with 123 more rows
…
