…
``` r
# install/load needed R packages
if (!require("pacman")) install.packages("pacman")
pacman::p_load(tidyverse, scales, colorspace, plotly, RSwissMaps, BFS)

# setting light theme
theme_set(theme_light())

# Get BFS metadata in German
meta_de <- bfs_get_metadata(language = "de")
meta_de
```

    ## # A tibble: 676 x 5
    ##    title          observation_period   published url           url_px      
    ##    <chr>          <chr>                <chr>     <chr>         <chr>       
    ##  1 Ausländische … Dargestellter Zeitr… 07.11.20… https://www.… https://www…
    ##  2 Ausländische … Dargestellter Zeitr… 07.11.20… https://www.… https://www…
    ##  3 Ausländische … Dargestellter Zeitr… 07.11.20… https://www.… https://www…
    ##  4 Ausländische … Dargestellter Zeitr… 07.11.20… https://www.… https://www…
    ##  5 Ausländische … Dargestellter Zeitr… 07.11.20… https://www.… https://www…
    ##  6 Ausländische … Dargestellter Zeitr… 07.11.20… https://www.… https://www…
    ##  7 Ausländische … Dargestellter Zeitr… 07.11.20… https://www.… https://www…
    ##  8 Ausländische … Dargestellter Zeitr… 07.11.20… https://www.… https://www…
    ##  9 Hotellerie: A… Dargestellter Zeitr… 04.11.20… https://www.… https://www…
    ## 10 Hotellerie: A… Dargestellter Zeitr… 04.11.20… https://www.… https://www…
    ## # … with 666 more rows

We currently have access to 676 BFS datasets.

The challenge today is to plot a detailed map of Switzerland containing
all 2’212 Swiss municipalites, or “gemeinde” in German. How many current
BFS datasets contain the word “gemeinde” in their title? Let’s find out
using the `bfs_search()` function.

``` r
meta_de_gemeinde <- bfs_search("gemeinde", data = meta_de)
meta_de_gemeinde
```

    ## # A tibble: 34 x 5
    ##    title          observation_period   published url           url_px      
    ##    <chr>          <chr>                <chr>     <chr>         <chr>       
    ##  1 Ausländische … Dargestellter Zeitr… 07.11.20… https://www.… https://www…
    ##  2 Hotellerie: A… Dargestellter Zeitr… 04.11.20… https://www.… https://www…
    ##  3 Hotellerie: A… Dargestellter Zeitr… 04.11.20… https://www.… https://www…
    ##  4 Nationalratsw… Dargestellter Zeitr… 19.09.20… https://www.… https://www…
    ##  5 Arbeitsstätte… Dargestellter Zeitr… 22.08.20… https://www.… https://www…
    ##  6 Kinoinfrastru… Dargestellter Zeitr… 14.03.20… https://www.… https://www…
    ##  7 Volksabstimmu… Dargestellter Zeitr… 04.03.20… https://www.… https://www…
    ##  8 Öffentliche B… Dargestellter Zeitr… 20.12.20… https://www.… https://www…
    ##  9 Gründung, Sch… Dargestellter Zeitr… 10.12.20… https://www.… https://www…
    ## 10 Neu gegründet… Dargestellter Zeitr… 05.10.20… https://www.… https://www…
    ## # … with 24 more rows
…
    ## [1] "Ausländische Grenzgänger/innen nach Geschlecht und Arbeitsgemeinde"

``` r
meta_de_gemeinde1 <- bfs_search("Ausländische Grenzgänger/innen nach Geschlecht und Arbeitsgemeinde", 
                                meta_de_gemeinde)

data_bfs <- bfs_get_dataset(meta_de_gemeinde1$url_px[1])
data_bfs
```

    ## # A tibble: 638,970 x 4
    ##    quartal arbeitsgemeinde geschlecht           value
    ##    <fct>   <fct>           <fct>                <dbl>
    ##  1 1996Q1  Schweiz         Geschlecht - Total 143526.
    ##  2 1996Q2  Schweiz         Geschlecht - Total 142744.
    ##  3 1996Q3  Schweiz         Geschlecht - Total 141538.
    ##  4 1996Q4  Schweiz         Geschlecht - Total 139210.
    ##  5 1997Q1  Schweiz         Geschlecht - Total 137687.
    ##  6 1997Q2  Schweiz         Geschlecht - Total 135740.
    ##  7 1997Q3  Schweiz         Geschlecht - Total 136010.
    ##  8 1997Q4  Schweiz         Geschlecht - Total 134580.
    ##  9 1998Q1  Schweiz         Geschlecht - Total 134379.
    ## 10 1998Q2  Schweiz         Geschlecht - Total 134552.
    ## # … with 638,960 more rows
…
``` r
data_bfs_ratio <- data_bfs %>%
  tidyr::pivot_wider(names_from = "geschlecht", values_from = "value") %>%
  rename(quarter = quartal, 
         municipality = arbeitsgemeinde,
         man = Mann, woman = Frau, 
         gender_total = `Geschlecht - Total`) %>%
  mutate(municipality = str_remove_all(municipality, "\\.|^\\- ")) %>% # cleaning
  mutate(gender_ratio = man / gender_total * 100) %>%
  arrange(desc(quarter))

data_bfs_ratio
```

    ## # A tibble: 212,990 x 6
    ##    quarter municipality      gender_total        man     woman gender_ratio
    ##    <fct>   <chr>                    <dbl>      <dbl>     <dbl>        <dbl>
    ##  1 2019Q3  Schweiz              325291.   209406.      1.16e+5         64.4
    ##  2 2019Q3  Zürich                10342.     7557.      2.78e+3         73.1
    ##  3 2019Q3  Aeugst am Albis           0         0       0.             NaN  
    ##  4 2019Q3  Affoltern am Alb…        19.3      14.5     4.75e+0         75.4
    ##  5 2019Q3  Bonstetten                1.74      0.874   8.62e-1         50.4
    ##  6 2019Q3  Hausen am Albis           0         0       0.             NaN  
    ##  7 2019Q3  Hedingen                 42.1      41.5     5.99e-1         98.6
    ##  8 2019Q3  Kappel am Albis           0         0       0.             NaN  
    ##  9 2019Q3  Knonau                    0         0       0.             NaN  
    ## 10 2019Q3  Maschwanden               0         0       0.             NaN  
    ## # … with 212,980 more rows
…
