: The Lack of Female Protagonists in Children’s Movies
…
as_tibble(urls)

## # A tibble: 1,697 x 1
##                                    value
##                                    <chr>
##  1       /wiki/The_Blue_Bird_(1918_film)
##  2           /wiki/Pollyanna_(1920_film)
##  3           /wiki/Peter_Pan_(1924_film)
##  4    /wiki/A_Kiss_for_Cinderella_(film)
##  5        /wiki/Wizard_of_Oz_(1925_film)
##  6 /wiki/The_Adventures_of_Prince_Achmed
##  7 /wiki/Alice_in_Wonderland_(1933_film)
##  8    /wiki/Babes_in_Toyland_(1934_film)
##  9                /wiki/Curly_Top_(film)
## 10                /wiki/The_New_Gulliver
## # ... with 1,687 more rows
…
