Can you Guess a Cuisine from its Ingredients? · Félix Luginbühl
…
test_unnested <- test %>%
  tidyr::unnest(ingredients) %>%
  mutate(ingredients = str_replace_all(ingredients, "-","_"), # allow dash
         ingredients = str_remove_all(ingredients, "[^A-Za-z0-9_ ]"), #keep letters, spaces, dash
         type = "test")

dataset <- full_join(train_unnested, test_unnested) %>%
  as_tibble()

dataset %>% arrange(id)

## # A tibble: 535,670 x 4
##       id cuisine ingredients                        type 
##    <int> <fct>   <chr>                              <chr>
##  1     0 spanish mussels                            train
##  2     0 spanish ground black pepper                train
##  3     0 spanish garlic cloves                      train
##  4     0 spanish saffron threads                    train
##  5     0 spanish olive oil                          train
##  6     0 spanish stewed tomatoes                    train
##  7     0 spanish arborio rice                       train
##  8     0 spanish minced onion                       train
##  9     0 spanish medium shrimp                      train
## 10     0 spanish fat free less sodium chicken broth train
## # ... with 535,660 more rows
…
Show code

library(tidytext)
library(SnowballC)

dataset_tidy <- dataset %>%
  tidytext::unnest_tokens(word, ingredients, drop = FALSE) %>%
  anti_join(stop_words) %>%
  mutate(wordStem = SnowballC::wordStem(word)) #Stemming

dataset_tidy %>% arrange(id)

## # A tibble: 994,837 x 6
##       id cuisine ingredients         type  word    wordStem
##    <int> <fct>   <chr>               <chr> <chr>   <chr>   
##  1     0 spanish mussels             train mussels mussel  
##  2     0 spanish ground black pepper train ground  ground  
##  3     0 spanish ground black pepper train black   black   
##  4     0 spanish ground black pepper train pepper  pepper  
##  5     0 spanish garlic cloves       train garlic  garlic  
##  6     0 spanish garlic cloves       train cloves  clove   
##  7     0 spanish saffron threads     train saffron saffron 
##  8     0 spanish saffron threads     train threads thread  
##  9     0 spanish olive oil           train olive   oliv    
## 10     0 spanish olive oil           train oil     oil     
## # ... with 994,827 more rows
…
dataset_dtm %>% arrange(id)

## # A tibble: 49,718 x 803
##    cuisine        id type  ground pepper fresh  seed chicken   dri  sauc
##    <fct>       <dbl> <chr>  <dbl>  <dbl> <dbl> <dbl>   <dbl> <dbl> <dbl>
##  1 spanish        0. train     1.     1.    0.    0.      1.    0.    0.
##  2 mexican        1. train     3.     4.    1.    0.      0.    0.    0.
##  3 french         2. train     0.     1.    0.    0.      1.    0.    0.
##  4 chinese        3. train     0.     1.    1.    0.      0.    0.    1.
##  5 italian        4. train     0.     0.    0.    0.      0.    0.    0.
##  6 <NA>           5. test      1.     0.    0.    0.      0.    1.    1.
##  7 chinese        6. train     0.     0.    0.    0.      0.    0.    1.
##  8 <NA>           7. test      4.     1.    1.    0.      1.    0.    0.
##  9 french         8. train     0.     0.    0.    0.      0.    0.    0.
## 10 southern_us    9. train     0.     1.    0.    0.      0.    2.    0.
## # ... with 49,708 more rows, and 793 more variables
…
# We can now join these three variables to our main dataset.
dataset_final <- dataset_dtm %>%
  full_join(nAsian_ingredients, by = "id") %>%
  full_join(nSouth_ingredients, by = "id") %>%
  full_join(nNorth_ingredients, by = "id") %>%
  # replace NA by 0 in the new variables
  mutate_at(vars(c(nAsian_ing, nNorth_ing, nSouth_ing)), funs(replace(., is.na(.), 0)))

write_csv(dataset_final, "output/dataset_final.csv") #save dataset

dataset_final %>%
  select(cuisine, id, nIng, nAsian_ing, nNorth_ing, nSouth_ing, everything()) %>%
  arrange(id)

## # A tibble: 49,718 x 807
##    cuisine        id  nIng nAsian_ing nNorth_ing nSouth_ing type  ground
##    <fct>       <dbl> <int>      <dbl>      <dbl>      <dbl> <chr>  <dbl>
##  1 spanish        0.    25         0.         0.         0. train     1.
##  2 mexican        1.    36         0.         0.         0. train     3.
##  3 french         2.    26         0.         1.         0. train     0.
##  4 chinese        3.    19         0.         0.         0. train     0.
##  5 italian        4.     8         0.         0.         0. train     0.
##  6 <NA>           5.    17         0.         0.         0. test      1.
##  7 chinese        6.     9         0.         0.         0. train     0.
##  8 <NA>           7.    31         0.         0.         1. test      4.
##  9 french         8.    16         0.         0.         0. train     0.
## 10 southern_us    9.    19         0.         0.         0. train     0.
## # ... with 49,708 more rows, and 799 more variables
…
