Which Marvel Characters and Movies are the Most Central? · Félix Luginbühl
…
marvel_graph %>% 
  activate(nodes) %>% 
  as_tibble() %>%
  arrange(desc(degree))

## # A tibble: 36 x 5
##    name                       degree closeness betweenness type     
##    <chr>                       <dbl>     <dbl>       <dbl> <chr>    
##  1 Avengers: Infinity War        14.    0.0161       237.  Movie    
##  2 Captain America: Civil War    10.    0.0128        57.8 Movie    
##  3 Avengers: Age of Ultron        9.    0.0135        61.6 Movie    
##  4 Iron Man                       9.    0.0135        89.2 Character
##  5 Captain America                9.    0.0135        69.3 Character
##  6 Nick Fury                      8.    0.0111        94.0 Character
##  7 Avengers                       7.    0.0128        40.7 Movie    
##  8 Ant-Man                        7.    0.0123        35.3 Movie    
##  9 Thor                           7.    0.0128        62.2 Character
## 10 Hulk                           6.    0.0125        40.1 Character
## # ... with 26 more rows
…
